HB	Event	Team	Value
0	4	NEUTRAL	8
0	7	NEUTRAL	0
1061	5	BEARS	0
1167	5	RACOON	0
1887	0	RACOON	0
1932	5	SNAKES	0
2048	5	BEARS	0
2768	0	BEARS	0
3862	5	RACOON	0
4582	0	RACOON	0
5075	5	SNAKES	0
5795	0	SNAKES	0
6232	2	WOLFS	2
6232	6	SNAKES	0
7399	5	BEARS	0
8119	0	BEARS	0
8189	2	RACOON	2
8189	6	BEARS	0
8592	1	BEARS	30
14922	5	RACOON	0
15642	0	RACOON	0
16196	1	RACOON	25
22891	1	RACOON	22
23408	2	BEARS	2
23408	6	RACOON	0
27332	2	WOLFS	2
27332	6	RACOON	0
