HB	Event	Team	Value
0	4	NEUTRAL	8
0	7	NEUTRAL	0
1314	5	SNAKES	0
2034	0	SNAKES	0
2703	1	SNAKES	17
3547	2	SNAKES	2
3547	6	SNAKES	0
5955	1	SNAKES	7
7302	2	SNAKES	2
7302	6	SNAKES	0
8533	5	RACOON	0
9253	0	RACOON	0
9893	2	BEARS	2
9893	6	RACOON	0
17700	5	SNAKES	0
18420	0	SNAKES	0
24392	3	LYNX	0
