HB	Event	Team	Value
0	4	NEUTRAL	8
0	7	NEUTRAL	0
803	2	SNAKES	2
803	6	NEUTRAL	0
1199	5	SNAKES	0
1235	5	MOSQUITOES	0
1281	5	SNAKES	0
2001	0	SNAKES	0
2243	5	MOSQUITOES	0
2662	6	SNAKES	0
2701	1	SNAKES	13
2848	5	MOSQUITOES	0
2914	2	MOSQUITOES	1
2914	6	SNAKES	0
4209	2	MOSQUITOES	2
4209	6	SNAKES	0
4606	5	MOSQUITOES	0
5326	0	MOSQUITOES	0
6407	1	MOSQUITOES	7
7511	2	SNAKES	2
7511	6	MOSQUITOES	0
8573	5	SNAKES	0
8766	2	SNAKES	2
8766	6	MOSQUITOES	0
9538	5	WOLFS	0
9573	5	SNAKES	0
10293	0	SNAKES	0
10327	1	SNAKES	7
10961	2	SNAKES	2
10961	6	SNAKES	0
11353	5	MOSQUITOES	0
12073	0	MOSQUITOES	0
12116	5	RACOON	0
12210	6	MOSQUITOES	0
12549	1	MOSQUITOES	4
12741	5	SNAKES	0
13461	0	SNAKES	0
16113	1	SNAKES	12
19312	5	MOSQUITOES	0
19385	6	SNAKES	0
19463	3	SNAKES	0
19524	1	SNAKES	13
23291	3	SNAKES	2
