HB	Event	Team	Value
0	4	NEUTRAL	8
0	7	NEUTRAL	0
1074	5	SNAKES	0
1641	5	BEARS	0
2361	0	BEARS	0
2427	1	BEARS	16
6798	5	SNAKES	0
7518	0	SNAKES	0
8167	2	RACOON	2
8167	6	SNAKES	0
9304	1	SNAKES	19
9618	5	BEARS	0
10338	0	BEARS	0
11432	5	SNAKES	0
11466	2	SNAKES	2
11466	6	BEARS	0
12085	1	BEARS	6
12779	5	SNAKES	0
12814	2	SNAKES	2
12814	6	BEARS	0
15162	1	BEARS	7
18579	5	SNAKES	0
18615	2	SNAKES	2
18615	6	BEARS	0
19059	5	SNAKES	0
19779	0	SNAKES	0
20414	1	SNAKES	15
22064	5	BEARS	0
22787	0	BEARS	0
22865	5	SNAKES	0
22939	6	BEARS	0
24031	1	BEARS	12
25604	5	SNAKES	0
25629	3	SNAKES	1
25670	2	SNAKES	2
25670	6	BEARS	0
26824	3	BEARS	2
27467	1	BEARS	10
