HB	Event	Team	Value
0	4	NEUTRAL	4
0	7	NEUTRAL	0
3525	5	SNAKES	0
4245	0	SNAKES	0
4294	1	SNAKES	11
6863	3	SNAKES	3
7681	1	SNAKES	6
8950	2	BEARS	1
8950	6	SNAKES	0
10817	1	SNAKES	4
11236	2	BEARS	1
11236	6	SNAKES	0
14540	1	SNAKES	6
17495	1	SNAKES	6
20058	3	BEARS	0
20081	3	BEARS	2
20564	2	SNAKES	1
20564	6	SNAKES	0
20987	1	SNAKES	5
23148	1	SNAKES	5