HB	Event	Team	Value
0	4	NEUTRAL	4
0	7	NEUTRAL	0
3600	0	SNAKES	0
4900	1	SNAKES	6
7623	1	SNAKES	7
10392	1	SNAKES	5
13045	1	SNAKES	4
15837	2	SNAKES	1
15837	6	SNAKES	0
16657	1	SNAKES	5
17188	2	SNAKES	1
17188	6	SNAKES	0
19240	1	SNAKES	3
22788	1	SNAKES	6