HB	Event	Team	Value
0	4	NEUTRAL	4
0	7	NEUTRAL	0
80	5	SNAKES	0
800	0	SNAKES	0
1271	2	SNAKES	1
1271	6	SNAKES	0
2704	1	SNAKES	7
4562	2	LYNX	1
4562	6	SNAKES	0
5060	1	SNAKES	2
7470	1	SNAKES	4
10481	1	SNAKES	5
11859	3	BEARS	0
12999	1	SNAKES	5
15269	2	N/A	1
15269	6	SNAKES	0
15801	1	SNAKES	4
16985	2	N/A	1
16985	6	SNAKES	0
19228	1	SNAKES	5
20038	2	SNAKES	1
20038	6	SNAKES	0
20415	3	BEARS	3
20463	5	BEARS	0
20775	6	SNAKES	0
22609	1	SNAKES	5
24990	1	SNAKES	5