HB	Event	Team	Value
0	4	NEUTRAL	4
0	7	NEUTRAL	0
392	5	BEARS	0
483	5	SNAKES	0
813	5	BEARS	0
849	5	SNAKES	0
1248	5	BEARS	0
1710	2	SNAKES	1
1710	6	NEUTRAL	0
2200	5	BEARS	0
2920	0	BEARS	0
3004	1	BEARS	7
3640	5	SNAKES	0
3705	6	BEARS	0
3743	2	BEARS	1
3743	6	BEARS	0
4467	5	SNAKES	0
4954	6	BEARS	0
5064	2	SNAKES	1
5064	6	BEARS	0
5841	1	BEARS	2
5980	5	SNAKES	0
6319	6	BEARS	0
7284	2	SNAKES	1
7284	6	BEARS	0
8644	1	BEARS	3
8907	2	SNAKES	1
8907	6	BEARS	0
9720	3	SNAKES	0
11496	1	BEARS	4
11730	2	SNAKES	1
11730	6	BEARS	0
12657	2	SNAKES	1
12657	6	BEARS	0
13154	5	SNAKES	0
13741	6	BEARS	0
14058	1	BEARS	2
14664	2	BEARS	1
14664	6	BEARS	0
15299	5	N/A	0
15623	6	BEARS	0
15661	2	N/A	1
15661	6	BEARS	0
16791	2	SNAKES	1
16791	6	BEARS	0
17505	1	BEARS	2
18051	5	SNAKES	0
18501	6	BEARS	0
18539	2	BEARS	1
18539	6	BEARS	0
19139	3	LYNX	2
19185	5	LYNX	0
19450	6	BEARS	0
20334	3	SNAKES	1
20469	1	BEARS	5
21998	2	BEARS	1
21998	6	BEARS	0
23047	2	SNAKES	1
23047	6	BEARS	0
24173	2	SNAKES	1
24173	6	BEARS	0