HB	Event	Team	Value
0	4	NEUTRAL	6
0	7	NEUTRAL	0
1840	5	LYNX	0
2213	5	BEARS	0
2238	3	BEARS	1
2933	0	BEARS	0
3135	1	BEARS	18
5685	1	BEARS	10
7714	5	ALIGATORS	0
8435	0	ALIGATORS	0
8552	1	ALIGATORS	11
8680	5	BEARS	0
9400	0	BEARS	0
11920	1	BEARS	13
