HB	Event	Team	Value
0	4	NEUTRAL	6
0	7	NEUTRAL	0
1215	5	BEARS	0
1935	0	BEARS	0
1974	1	BEARS	12
4437	1	BEARS	8
6586	1	BEARS	7
9132	1	BEARS	9
9314	3	LYNX	1
11322	2	BEARS	1
11322	6	BEARS	0
13306	1	BEARS	14
